…
homicide_sum= homicide_df %>% 
  group_by (city_state) %>% 
  summarize ( 
    total_homicides = n (),
    unsolved_homicides = sum(disposition == "Closed without arrest" , disposition== "Open/No arrest"))

homicide_sum 
```

    ## # A tibble: 50 × 3
    ##    city_state     total_homicides unsolved_homicides
    ##    <chr>                    <int>              <int>
    ##  1 Albuquerque,NM             378                146
    ##  2 Atlanta,GA                 973                373
    ##  3 Baltimore,MD              2827               1825
    ##  4 Baton Rouge,LA             424                196
    ##  5 Birmingham,AL              800                347
    ##  6 Boston,MA                  614                310
    ##  7 Buffalo,NY                 521                319
    ##  8 Charlotte,NC               687                206
    ##  9 Chicago,IL                5535               4073
    ## 10 Cincinnati,OH              694                309
    ## # … with 40 more rows
…
